draft for weather and R
…
##  Conflicts  tidyverse_conflicts() 
##  dplyr::filter() masks stats::filter()
##  dplyr::lag()    masks stats::lag()

## 
## Attaching package: 'lubridate'

## The following object is masked from 'package:base':
## 
##     date

riem_networks() 

## # A tibble: 267 x 2
##    code     name                     
##    <chr>    <chr>                    
##  1 AE__ASOS United Arab Emirates ASOS
##  2 AF__ASOS Afghanistan ASOS         
##  3 AG__ASOS Antigua and Barbuda ASOS 
##  4 AI__ASOS Anguilla ASOS            
##  5 AK_ASOS  Alaska ASOS              
##  6 AL_ASOS  Alabama ASOS             
##  7 AL__ASOS Albania ASOS             
##  8 AM__ASOS Armenia ASOS             
##  9 AN__ASOS Netherlands Antilles ASOS
## 10 AO__ASOS Angola ASOS              
## # ... with 257 more rows
…
